<?xml version="1.0" encoding="utf-8"?>
<svg width="220px" height="30px" viewBox="0 0 220 30" version="1.1" xmlns:xlink="http://www.w3.org/1999/xlink" xmlns="http://www.w3.org/2000/svg">
  <g id="Logo">
    <path d="M74.1653 30C77.2536 30 79.8905 28.9041 82.0761 26.7122C84.2616 24.5203 85.3544 21.8837 85.3544 18.8024C85.3544 15.7051 84.2616 13.0685 82.0761 10.8925C79.8905 8.68477 77.2536 7.58089 74.1653 7.58089C71.9956 7.58089 70.0239 8.1368 68.2501 9.24862L68.2501 2L63 0L63 18.8024C63 21.8837 64.1007 24.5203 66.3021 26.7122C68.4718 28.9041 71.0929 30 74.1653 30ZM74.1653 24.6632C72.5658 24.6632 71.1879 24.0915 70.0318 22.9479C68.9073 21.7884 68.3451 20.4066 68.3451 18.8024C68.3451 17.1823 68.9073 15.7925 70.0318 14.633C71.1879 13.4894 72.5658 12.9176 74.1653 12.9176C75.7807 12.9176 77.1665 13.4894 78.3226 14.633C79.4629 15.7925 80.0331 17.1823 80.0331 18.8024C80.0331 20.4066 79.4629 21.7884 78.3226 22.9479C77.1665 24.0915 75.7807 24.6632 74.1653 24.6632ZM110.56 30L110.56 18.8024C110.56 15.721 109.467 13.0924 107.281 10.9164C105.096 8.7086 102.459 7.60471 99.3705 7.60471C96.298 7.60471 93.6769 8.7086 91.5072 10.9164L91.3621 11.0621C89.2575 13.2094 88.2051 15.7895 88.2051 18.8024C88.2051 21.8837 89.3058 24.5203 91.5072 26.7122C93.6769 28.9041 96.298 30 99.3705 30C101.572 30 103.552 29.4441 105.309 28.3323L105.309 28.3323L105.309 30L110.56 30ZM99.3705 24.6632C97.7709 24.6632 96.393 24.0915 95.2369 22.9479C94.1125 21.7884 93.5502 20.4066 93.5502 18.8024C93.5502 17.1982 94.1125 15.8163 95.2369 14.6568C96.393 13.5133 97.7709 12.9415 99.3705 12.9415C100.986 12.9415 102.372 13.5133 103.528 14.6568C104.668 15.8163 105.238 17.1982 105.238 18.8024C105.238 20.4066 104.668 21.7884 103.528 22.9479C102.372 24.0915 100.986 24.6632 99.3705 24.6632ZM118.684 30L118.684 18.7309C118.684 17.1267 119.254 15.7528 120.395 14.6092C121.535 13.4815 122.905 12.9176 124.504 12.9176C126.088 12.9176 127.45 13.4815 128.59 14.6092C129.731 15.7528 130.301 17.1267 130.301 18.7309L130.301 18.7309L130.301 30L135.575 30L135.575 18.7309C135.575 15.6654 134.49 13.0447 132.32 10.8687C130.15 8.69271 127.545 7.60471 124.504 7.60471C121.448 7.60471 118.835 8.69271 116.665 10.8687C114.495 13.0447 113.41 15.6654 113.41 18.7309L113.41 18.7309L113.41 30L118.684 30ZM160.78 30L160.78 18.8024C160.78 15.721 159.687 13.0924 157.501 10.9164C155.316 8.7086 152.679 7.60471 149.591 7.60471C146.518 7.60471 143.897 8.7086 141.727 10.9164L141.582 11.0621C139.478 13.2094 138.425 15.7895 138.425 18.8024C138.425 21.8837 139.526 24.5203 141.727 26.7122C143.897 28.9041 146.518 30 149.591 30C151.792 30 153.772 29.4441 155.53 28.3323L155.53 28.3323L155.53 30L160.78 30ZM149.591 24.6632C147.991 24.6632 146.613 24.0915 145.457 22.9479C144.333 21.7884 143.77 20.4066 143.77 18.8024C143.77 17.1982 144.333 15.8163 145.457 14.6568C146.613 13.5133 147.991 12.9415 149.591 12.9415C151.206 12.9415 152.592 13.5133 153.748 14.6568C154.888 15.8163 155.458 17.1982 155.458 18.8024C155.458 20.4066 154.888 21.7884 153.748 22.9479C152.592 24.0915 151.206 24.6632 149.591 24.6632ZM168.904 30L168.904 18.7309C168.904 17.1267 169.474 15.7528 170.615 14.6092C171.755 13.4815 173.125 12.9176 174.725 12.9176C176.308 12.9176 177.67 13.4815 178.811 14.6092C179.951 15.7528 180.521 17.1267 180.521 18.7309L180.521 18.7309L180.521 30L185.795 30L185.795 18.7309C185.795 15.6654 184.71 13.0447 182.54 10.8687C180.371 8.69271 177.765 7.60471 174.725 7.60471C171.668 7.60471 169.055 8.69271 166.885 10.8687C164.715 13.0447 163.63 15.6654 163.63 18.7309L163.63 18.7309L163.63 30L168.904 30ZM211 30L211 18.8024C211 15.721 209.907 13.0924 207.722 10.9164C205.536 8.7086 202.899 7.60471 199.811 7.60471C196.738 7.60471 194.117 8.7086 191.948 10.9164L191.803 11.0621C189.698 13.2094 188.646 15.7895 188.646 18.8024C188.646 21.8837 189.746 24.5203 191.948 26.7122C194.117 28.9041 196.738 30 199.811 30C202.012 30 203.992 29.4441 205.75 28.3323L205.75 28.3323L205.75 30L211 30ZM199.811 24.6632C198.211 24.6632 196.833 24.0915 195.677 22.9479C194.553 21.7884 193.991 20.4066 193.991 18.8024C193.991 17.1982 194.553 15.8163 195.677 14.6568C196.833 13.5133 198.211 12.9415 199.811 12.9415C201.426 12.9415 202.812 13.5133 203.968 14.6568C205.109 15.8163 205.679 17.1982 205.679 18.8024C205.679 20.4066 205.109 21.7884 203.968 22.9479C202.812 24.0915 201.426 24.6632 199.811 24.6632Z" id="redbanana" fill="#1C0705" stroke="none" />
    <path d="M5.2619 30L5.2619 18.6489C5.2619 17.7596 5.4127 17.0887 5.71429 16.6362C5.98413 15.9652 6.38889 15.3723 6.92857 14.8574C7.46825 14.327 8.07936 13.9135 8.7619 13.617C9.47619 13.3206 10.2222 13.1723 11 13.1723L11 8.0234C9.50794 8.0234 8.07936 8.30426 6.71429 8.86596C6.25397 9.05319 5.76984 9.30284 5.2619 9.61489C5.2619 9.61489 3.61836 10.5453 2.33369 11.8679C1.04903 13.1904 0 15.0321 0 15.0321L0 30L5.2619 30Z" id="Path" fill="#FE3E31" fill-rule="evenodd" stroke="none" />
    <path d="M28.3581 29.0404C27.0685 29.6333 25.7246 29.9532 24.3263 30L24 30Q21.9258 30 19.9915 29.2511C18.6554 28.7206 17.4746 27.9638 16.4492 26.9809Q14.8178 25.4596 13.9555 23.4234Q13.0699 21.5043 13 19.3979L13 19.0468Q13 16.9404 13.7458 15.0213Q14.5381 13.0085 15.9831 11.4638Q17.5212 9.82553 19.5487 8.95957Q21.5297 8.07021 23.6737 8L23.9068 8Q25.9809 8 27.9153 8.77234C29.2359 9.30284 30.4167 10.0596 31.4576 11.0426C32.7006 12.244 33.8814 14.2177 35 16.9638L20.3178 23.4468C20.7994 23.8369 21.3121 24.1411 21.8559 24.3596C22.5395 24.6248 23.2309 24.7574 23.9301 24.7574L24.1631 24.7574Q25.2352 24.7106 26.2606 24.266C26.9597 23.9539 27.5812 23.517 28.125 22.9553Q28.8475 22.1128 29.2903 21.1064L34.1377 22.9787C33.6095 24.305 32.8637 25.4908 31.9004 26.5362C30.8905 27.6284 29.7097 28.4631 28.3581 29.0404ZM18.6165 16.8936Q18.2669 17.783 18.2203 18.6723L27.5657 14.5532C27.0996 14.1787 26.5946 13.8745 26.0508 13.6404Q24.9788 13.2426 23.8602 13.2426L23.7669 13.2426Q22.6716 13.2894 21.6462 13.734C20.916 14.0617 20.2867 14.4986 19.7585 15.0447Q19.0593 15.8872 18.6165 16.8936Z" id="Combined-Shape" fill="#FE3E31" fill-rule="evenodd" stroke="none" />
    <path d="M56.7503 26.7197Q53.5473 30 49.0117 30Q44.4527 30 41.2264 26.7197Q38 23.4394 38 18.828Q38 14.1928 41.2264 10.9363Q44.4527 7.63226 49.0117 7.63226Q52.2147 7.63226 54.8332 9.29617L54.8332 3.55271e-15L60 2L60 18.828Q60 23.4394 56.7503 26.7197ZM44.9203 22.964Q46.627 24.6755 49.0117 24.6755Q51.373 24.6755 53.0797 22.964Q54.7396 21.2288 54.7396 18.828Q54.7396 16.4035 53.0797 14.6682Q51.373 12.9568 49.0117 12.9568Q46.627 12.9568 44.9203 14.6682Q43.237 16.4035 43.237 18.828Q43.237 21.2288 44.9203 22.964Z" id="Combined-Shape" fill="#FE3E31" fill-rule="evenodd" stroke="none" />
    <path d="M216.525 30C217.482 30 218.296 29.6559 218.968 28.9676C219.656 28.2794 220 27.4568 220 26.5C220 25.5264 219.656 24.7038 218.968 24.0324C218.296 23.3441 217.482 23 216.525 23C215.552 23 214.721 23.3441 214.032 24.0324C213.344 24.7038 213 25.5264 213 26.5C213 27.4568 213.344 28.2794 214.032 28.9676C214.721 29.6559 215.552 30 216.525 30Z" id="redbanana." fill="#FE3E31" fill-rule="evenodd" stroke="none" />
  </g>
</svg>